FID1	ID1	FID2	ID2	N_SNP	HetHet	IBS0	Kinship
P2701_106	P2701_106	P2701_113	P2701_113	8160103	0.293	0.0003	0.4828
P2701_106	P2701_106	P2703_126	P2703_126	8120900	0.284	0.0006	0.4734
P2701_106	P2701_106	P2703_127	P2703_127	8139026	0.290	0.0005	0.4775
P2701_106	P2701_106	P2703_128	P2703_128	8101787	0.281	0.0007	0.4702
P2701_107	P2701_107	P2701_114	P2701_114	8165633	0.298	0.0003	0.4835
P2701_108	P2701_108	P2701_201	P2701_201	8167755	0.296	0.0003	0.4827
P2701_108	P2701_108	P2703_102	P2703_102	8126061	0.288	0.0005	0.4747
P2701_108	P2701_108	P2703_103	P2703_103	8098339	0.282	0.0006	0.4694
P2701_108	P2701_108	P2703_104	P2703_104	8147219	0.293	0.0004	0.4784
P2701_108	P2701_108	P2703_105	P2703_105	8140328	0.292	0.0005	0.4781
P2701_110	P2701_110	P2701_203	P2701_203	8165264	0.297	0.0003	0.4832
P2701_110	P2701_110	P2703_111	P2703_111	8126682	0.289	0.0005	0.4763
P2701_110	P2701_110	P2703_112	P2703_112	8146935	0.293	0.0004	0.4788
P2701_110	P2701_110	P2703_113	P2703_113	8049126	0.267	0.0007	0.4545
P2701_110	P2701_110	P2703_114	P2703_114	8143267	0.292	0.0005	0.4783
P2701_112	P2701_112	P2701_205	P2701_205	8171128	0.297	0.0002	0.4835
P2701_113	P2701_113	P2703_126	P2703_126	8117175	0.283	0.0006	0.4733
P2701_113	P2701_113	P2703_127	P2703_127	8135249	0.289	0.0005	0.4777
P2701_113	P2701_113	P2703_128	P2703_128	8098971	0.280	0.0007	0.4705
P2701_201	P2701_201	P2703_102	P2703_102	8130018	0.288	0.0005	0.4752
P2701_201	P2701_201	P2703_103	P2703_103	8102413	0.282	0.0006	0.4700
P2701_201	P2701_201	P2703_104	P2703_104	8151934	0.293	0.0004	0.4790
P2701_201	P2701_201	P2703_105	P2703_105	8144978	0.292	0.0005	0.4786
P2701_202	P2701_202	P2701_206	P2701_206	8170764	0.294	0.0003	0.4838
P2701_202	P2701_202	P2703_109	P2703_109	8152249	0.290	0.0004	0.4784
P2701_203	P2701_203	P2703_111	P2703_111	8129020	0.290	0.0005	0.4760
P2701_203	P2701_203	P2703_112	P2703_112	8149875	0.293	0.0005	0.4787
P2701_203	P2701_203	P2703_113	P2703_113	8050834	0.267	0.0008	0.4540
P2701_203	P2701_203	P2703_114	P2703_114	8146001	0.293	0.0005	0.4781
P2701_204	P2701_204	P2701_207	P2701_207	8174900	0.297	0.0003	0.4842
P2701_204	P2701_204	P2703_116	P2703_116	8142792	0.291	0.0005	0.4778
P2701_204	P2701_204	P2703_117	P2703_117	8134890	0.289	0.0005	0.4763
P2701_204	P2701_204	P2703_118	P2703_118	8146622	0.291	0.0005	0.4775
P2701_204	P2701_204	P2703_120	P2703_120	8157721	0.293	0.0004	0.4796
P2701_206	P2701_206	P2703_109	P2703_109	8155272	0.290	0.0004	0.4789
P2701_207	P2701_207	P2703_116	P2703_116	8143740	0.291	0.0005	0.4780
P2701_207	P2701_207	P2703_117	P2703_117	8135892	0.289	0.0005	0.4764
P2701_207	P2701_207	P2703_118	P2703_118	8147911	0.291	0.0005	0.4778
P2701_207	P2701_207	P2703_120	P2703_120	8158748	0.293	0.0004	0.4797
P2703_102	P2703_102	P2703_103	P2703_103	8079369	0.278	0.0009	0.4688
P2703_102	P2703_102	P2703_104	P2703_104	8120540	0.287	0.0006	0.4749
P2703_102	P2703_102	P2703_105	P2703_105	8114957	0.286	0.0006	0.4750
P2703_103	P2703_103	P2703_104	P2703_104	8094139	0.281	0.0007	0.4701
P2703_103	P2703_103	P2703_105	P2703_105	8089570	0.280	0.0007	0.4705
P2703_104	P2703_104	P2703_105	P2703_105	8134342	0.290	0.0005	0.4781
P2703_106	P2703_106	P2703_107	P2703_107	8135790	0.292	0.0006	0.4767
P2703_106	P2703_106	P2703_108	P2703_108	8133499	0.291	0.0006	0.4769
P2703_106	P2703_106	P2703_121	P2703_121	8127282	0.290	0.0006	0.4768
P2703_106	P2703_106	P2703_122	P2703_122	8135981	0.291	0.0006	0.4769
P2703_106	P2703_106	P2703_123	P2703_123	8133801	0.291	0.0006	0.4769
P2703_106	P2703_106	P2703_124	P2703_124	8130210	0.290	0.0006	0.4765
P2703_106	P2703_106	P2703_125	P2703_125	8132452	0.291	0.0006	0.4768
P2703_107	P2703_107	P2703_108	P2703_108	8141361	0.293	0.0006	0.4776
P2703_107	P2703_107	P2703_121	P2703_121	8135012	0.292	0.0006	0.4774
P2703_107	P2703_107	P2703_122	P2703_122	8144560	0.293	0.0005	0.4777
P2703_107	P2703_107	P2703_123	P2703_123	8142189	0.292	0.0006	0.4776
P2703_107	P2703_107	P2703_124	P2703_124	8138053	0.292	0.0006	0.4773
P2703_107	P2703_107	P2703_125	P2703_125	8140069	0.293	0.0005	0.4776
P2703_108	P2703_108	P2703_121	P2703_121	8132928	0.291	0.0006	0.4776
P2703_108	P2703_108	P2703_122	P2703_122	8142060	0.292	0.0005	0.4781
P2703_108	P2703_108	P2703_123	P2703_123	8139831	0.292	0.0005	0.4782
P2703_108	P2703_108	P2703_124	P2703_124	8135908	0.291	0.0006	0.4775
P2703_108	P2703_108	P2703_125	P2703_125	8137548	0.292	0.0006	0.4779
P2703_111	P2703_111	P2703_112	P2703_112	8121774	0.288	0.0006	0.4755
P2703_111	P2703_111	P2703_113	P2703_113	8031520	0.265	0.0012	0.4543
P2703_111	P2703_111	P2703_114	P2703_114	8118640	0.288	0.0007	0.4754
P2703_112	P2703_112	P2703_113	P2703_113	8046689	0.266	0.0009	0.4550
P2703_112	P2703_112	P2703_114	P2703_114	8138891	0.291	0.0006	0.4777
P2703_113	P2703_113	P2703_114	P2703_114	8043743	0.266	0.0009	0.4548
P2703_116	P2703_116	P2703_117	P2703_117	8116792	0.287	0.0007	0.4760
P2703_116	P2703_116	P2703_118	P2703_118	8126823	0.289	0.0006	0.4764
P2703_116	P2703_116	P2703_120	P2703_120	8135789	0.290	0.0005	0.4775
P2703_117	P2703_117	P2703_118	P2703_118	8120022	0.287	0.0007	0.4754
P2703_117	P2703_117	P2703_120	P2703_120	8128290	0.288	0.0006	0.4762
P2703_118	P2703_118	P2703_120	P2703_120	8139758	0.290	0.0005	0.4773
P2703_121	P2703_121	P2703_122	P2703_122	8135964	0.291	0.0006	0.4778
P2703_121	P2703_121	P2703_123	P2703_123	8133707	0.291	0.0006	0.4777
P2703_121	P2703_121	P2703_124	P2703_124	8130173	0.290	0.0006	0.4775
P2703_121	P2703_121	P2703_125	P2703_125	8131328	0.291	0.0006	0.4774
P2703_122	P2703_122	P2703_123	P2703_123	8143600	0.292	0.0005	0.4784
P2703_122	P2703_122	P2703_124	P2703_124	8139349	0.291	0.0005	0.4779
P2703_122	P2703_122	P2703_125	P2703_125	8140001	0.292	0.0005	0.4776
P2703_123	P2703_123	P2703_124	P2703_124	8137459	0.291	0.0005	0.4778
P2703_123	P2703_123	P2703_125	P2703_125	8138138	0.292	0.0005	0.4779
P2703_124	P2703_124	P2703_125	P2703_125	8134569	0.291	0.0006	0.4772
P2703_126	P2703_126	P2703_127	P2703_127	8106582	0.282	0.0007	0.4722
P2703_126	P2703_126	P2703_128	P2703_128	8074960	0.275	0.0010	0.4672
P2703_127	P2703_127	P2703_128	P2703_128	8089907	0.279	0.0008	0.4700
